J774,DMOG,Day,Value
FALSE,TRUE,1,7
FALSE,TRUE,1,3
FALSE,TRUE,1,9
FALSE,TRUE,1,2
FALSE,TRUE,1,7
FALSE,TRUE,1,13
FALSE,TRUE,1,10
FALSE,TRUE,1,15
FALSE,TRUE,1,11
FALSE,TRUE,1,13
FALSE,TRUE,1,11
FALSE,FALSE,1,26
FALSE,FALSE,1,39
FALSE,FALSE,1,53
FALSE,FALSE,1,57
FALSE,FALSE,1,35
FALSE,FALSE,1,32
FALSE,FALSE,1,28
FALSE,FALSE,1,39
TRUE,TRUE,1,15
TRUE,TRUE,1,15
TRUE,TRUE,1,22
TRUE,TRUE,1,8
TRUE,TRUE,1,17
TRUE,TRUE,1,7
TRUE,TRUE,1,21
TRUE,TRUE,1,13
FALSE,FALSE,1,38
FALSE,FALSE,1,26
FALSE,FALSE,1,26
FALSE,FALSE,1,33
FALSE,FALSE,1,39
FALSE,FALSE,1,29
FALSE,FALSE,1,22
FALSE,FALSE,1,44
TRUE,TRUE,1,8
TRUE,TRUE,1,18
TRUE,TRUE,1,17
TRUE,TRUE,1,13
TRUE,TRUE,1,15
TRUE,TRUE,1,11
TRUE,TRUE,1,12
TRUE,TRUE,1,18
TRUE,TRUE,1,14
TRUE,FALSE,1,12
TRUE,FALSE,1,13
TRUE,FALSE,1,28
TRUE,FALSE,1,23
TRUE,FALSE,1,27
TRUE,FALSE,1,19
FALSE,FALSE,2,56
FALSE,FALSE,2,37
FALSE,FALSE,2,34
FALSE,FALSE,2,35
FALSE,FALSE,2,40
FALSE,FALSE,2,27
FALSE,FALSE,2,32
FALSE,FALSE,2,28
FALSE,FALSE,2,23
FALSE,FALSE,2,32
FALSE,FALSE,3,22
FALSE,FALSE,3,26
FALSE,FALSE,3,27
FALSE,FALSE,3,23
FALSE,FALSE,3,16
FALSE,FALSE,3,16
FALSE,FALSE,3,13
FALSE,FALSE,4,47
FALSE,FALSE,4,50
FALSE,FALSE,4,39
FALSE,FALSE,4,32
FALSE,FALSE,4,36
FALSE,FALSE,4,30
FALSE,FALSE,4,25
FALSE,FALSE,4,50
FALSE,FALSE,4,47
FALSE,FALSE,4,46
FALSE,TRUE,2,4
FALSE,TRUE,2,0
FALSE,TRUE,2,2
FALSE,TRUE,2,1
FALSE,TRUE,2,2
FALSE,TRUE,2,7
FALSE,TRUE,2,2
FALSE,TRUE,2,5
FALSE,TRUE,2,0
FALSE,TRUE,2,8
FALSE,TRUE,3,1
FALSE,TRUE,3,7
FALSE,TRUE,3,7
FALSE,TRUE,3,4
FALSE,TRUE,3,4
FALSE,TRUE,3,9
FALSE,TRUE,3,3
FALSE,TRUE,3,11
FALSE,TRUE,4,20
FALSE,TRUE,4,19
FALSE,TRUE,4,19
FALSE,TRUE,4,23
FALSE,TRUE,4,26
FALSE,TRUE,4,19
FALSE,TRUE,4,16
FALSE,TRUE,4,11
FALSE,TRUE,4,19
FALSE,TRUE,4,18
TRUE,FALSE,2,24
TRUE,FALSE,2,8
TRUE,FALSE,2,12
TRUE,FALSE,2,19
TRUE,FALSE,2,15
TRUE,FALSE,2,13
TRUE,FALSE,2,19
TRUE,FALSE,2,25
TRUE,FALSE,2,23
TRUE,FALSE,2,23
TRUE,FALSE,3,4
TRUE,FALSE,3,9
TRUE,FALSE,3,11
TRUE,FALSE,3,13
TRUE,FALSE,3,12
TRUE,FALSE,3,12
TRUE,FALSE,4,34
TRUE,FALSE,4,28
TRUE,FALSE,4,36
TRUE,FALSE,4,33
TRUE,FALSE,4,42
TRUE,FALSE,4,43
TRUE,FALSE,4,39
TRUE,FALSE,4,32
TRUE,FALSE,4,23
TRUE,FALSE,4,31
TRUE,TRUE,2,2
TRUE,TRUE,2,2
TRUE,TRUE,2,6
TRUE,TRUE,2,3
TRUE,TRUE,2,2
TRUE,TRUE,2,1
TRUE,TRUE,2,0
TRUE,TRUE,2,0
TRUE,TRUE,2,2
TRUE,TRUE,2,3
TRUE,TRUE,3,1
TRUE,TRUE,3,4
TRUE,TRUE,3,4
TRUE,TRUE,3,5
TRUE,TRUE,3,7
TRUE,TRUE,3,3
TRUE,TRUE,4,19
TRUE,TRUE,4,19
TRUE,TRUE,4,20
TRUE,TRUE,4,41
TRUE,TRUE,4,34
TRUE,TRUE,4,25
TRUE,TRUE,4,46
TRUE,TRUE,4,35
TRUE,TRUE,4,20
TRUE,TRUE,4,31
TRUE,FALSE,2,19
TRUE,FALSE,2,11
TRUE,FALSE,2,11
TRUE,FALSE,2,15
TRUE,FALSE,3,26
TRUE,FALSE,3,27
TRUE,FALSE,3,32
TRUE,FALSE,3,17
TRUE,FALSE,3,42
TRUE,FALSE,3,30
TRUE,FALSE,3,35
TRUE,FALSE,3,32
TRUE,FALSE,3,36
TRUE,TRUE,2,3
TRUE,TRUE,2,0
TRUE,TRUE,2,2
TRUE,TRUE,2,1
TRUE,TRUE,2,6
TRUE,TRUE,3,25
TRUE,TRUE,3,8
TRUE,TRUE,3,18
TRUE,TRUE,3,17
TRUE,TRUE,3,13
TRUE,TRUE,3,15
TRUE,TRUE,3,11
TRUE,TRUE,3,12
TRUE,TRUE,3,18
TRUE,TRUE,3,14
